…
``` r
# prioritize funding using stingy heuristic algorithm
s3 <- ppp_random_solution(x = sim_project_data, tree = sim_tree,
                          budget = 500, project_column_name = "name",
                          cost_column_name = "cost",
                          success_column_name = "success",
                          locked_in_column_name = "locked_in",
                          number_solutions = 500)

# print output
print(s3)
```

    ## # A tibble: 500 x 57
    ##    solution objective budget  cost optimal method S1_project S2_project
    ##       <int>     <dbl>  <dbl> <dbl> <lgl>   <chr>  <lgl>      <lgl>     
    ##  1        1      6.24    500  496. NA      random TRUE       FALSE     
    ##  2        2      6.26    500  411. NA      random TRUE       FALSE     
    ##  3        3      6.32    500  493. NA      random TRUE       FALSE     
    ##  4        4      6.53    500  495. NA      random TRUE       FALSE     
    ##  5        5      6.27    500  490. NA      random TRUE       FALSE     
    ##  6        6      6.27    500  489. NA      random TRUE       FALSE     
    ##  7        7      6.22    500  403. NA      random TRUE       FALSE     
    ##  8        8      6.28    500  500. NA      random TRUE       FALSE     
    ##  9        9      6.27    500  402. NA      random TRUE       FALSE     
    ## 10       10      6.28    500  494. NA      random TRUE       FALSE     
    ## # ... with 490 more rows, and 49 more variables: S3_project <lgl>,
    ## #   S4_project <lgl>, S5_project <lgl>, S6_project <lgl>,
    ## #   S7_project <lgl>, S8_project <lgl>, S9_project <lgl>,
    ## #   S10_project <lgl>, S11_project <lgl>, S12_project <lgl>,
    ## #   S13_project <lgl>, S14_project <lgl>, S15_project <lgl>,
    ## #   S16_project <lgl>, S17_project <lgl>, S18_project <lgl>,
    ## #   S19_project <lgl>, S20_project <lgl>, S21_project <lgl>,
    ## #   S22_project <lgl>, S23_project <lgl>, S24_project <lgl>,
    ## #   S25_project <lgl>, S26_project <lgl>, S27_project <lgl>,
…
