Optimal Project Prioritization Protocol
…
# print solution
print(s3)

## # A tibble: 1,000 x 57
##    solution method   obj budget  cost optimal S1_action S2_action S3_action
##       <int> <chr>  <dbl>  <dbl> <dbl> <lgl>   <lgl>     <lgl>     <lgl>    
##  1        1 random 0.497    500  408. NA      TRUE      FALSE     FALSE    
##  2        2 random 0.485    500  489. NA      TRUE      FALSE     FALSE    
##  3        3 random 0.461    500  414. NA      TRUE      FALSE     FALSE    
##  4        4 random 0.442    500  401. NA      TRUE      FALSE     FALSE    
##  5        5 random 0.501    500  491. NA      TRUE      FALSE     FALSE    
##  6        6 random 0.551    500  499. NA      TRUE      FALSE     FALSE    
##  7        7 random 0.457    500  494. NA      TRUE      FALSE     FALSE    
##  8        8 random 0.450    500  497. NA      TRUE      FALSE     FALSE    
##  9        9 random 0.453    500  497. NA      TRUE      TRUE      FALSE    
## 10       10 random 0.439    500  401. NA      TRUE      FALSE     FALSE    
## # ... with 990 more rows, and 48 more variables: S4_action <lgl>,
## #   S5_action <lgl>, S6_action <lgl>, S7_action <lgl>, S8_action <lgl>,
## #   S9_action <lgl>, S10_action <lgl>, S11_action <lgl>, S12_action <lgl>,
## #   S13_action <lgl>, S14_action <lgl>, S15_action <lgl>,
## #   S16_action <lgl>, S17_action <lgl>, S18_action <lgl>,
## #   S19_action <lgl>, S20_action <lgl>, S21_action <lgl>,
## #   S22_action <lgl>, S23_action <lgl>, S24_action <lgl>,
## #   S25_action <lgl>, S26_action <lgl>, S27_action <lgl>,
## #   S28_action <lgl>, S29_action <lgl>, S30_action <lgl>,
…
