Optimal Project Prioritization Protocol • optimalppp
…
Next, we will load the sim_project_data object. This object stores information about various conservation projects in a tabular format (i.e. tibble). Each row corresponds to a different project, and each column describes various properties associated with the projects. Importantly, the "name" column contains the name of each project, the "cost" column contains the cost of each project, the "success" column denotes the probability of each project succeeding if it is funded, and the "S1"–"S50" columns show the enhanced probability of each species persisting if the project is funded. It also contains additional columns, but we will ignore them for now. Note that the last project—the "baseline_project"—has a zero cost and represents the baseline probability of each species persisting if no other project is funded. Finally, though most projects in this example directly relate to a single species, you can input projects that directly affect the persistence of multiple species.

# print project data
print(sim_project_data)

## # A tibble: 51 x 55
##    name   cost success locked_in locked_out    S1   S10   S11   S12   S13
##    <chr> <dbl>   <dbl> <lgl>     <lgl>      <dbl> <dbl> <dbl> <dbl> <dbl>
##  1 S1_p… 105.    0.946 TRUE      FALSE      0.790 0     0     0     0    
##  2 S2_p… 110.    0.732 FALSE     FALSE      0     0.665 0     0     0    
##  3 S3_p… 104.    0.911 FALSE     FALSE      0     0     0.703 0     0    
##  4 S4_p… 100.    0.733 FALSE     FALSE      0     0     0     0.592 0    
##  5 S5_p… 105.    0.986 FALSE     FALSE      0     0     0     0     0.560
##  6 S6_p…  97.1   0.960 FALSE     FALSE      0     0     0     0     0    
##  7 S7_p… 104.    0.777 FALSE     FALSE      0     0     0     0     0    
##  8 S8_p… 103.    0.822 FALSE     FALSE      0     0     0     0     0    
##  9 S9_p… 100.    0.950 FALSE     TRUE       0     0     0     0     0    
## 10 S10_… 101.    0.729 FALSE     FALSE      0     0     0     0     0    
##      S14   S15   S16   S17   S18   S19    S2   S20   S21   S22   S23   S24
##    <dbl> <dbl> <dbl> <dbl> <dbl> <dbl> <dbl> <dbl> <dbl> <dbl> <dbl> <dbl>
##  1 0     0     0     0     0         0     0     0     0     0     0     0
##  2 0     0     0     0     0         0     0     0     0     0     0     0
##  3 0     0     0     0     0         0     0     0     0     0     0     0
##  4 0     0     0     0     0         0     0     0     0     0     0     0
##  5 0     0     0     0     0         0     0     0     0     0     0     0
##  6 0.557 0     0     0     0         0     0     0     0     0     0     0
##  7 0     0.851 0     0     0         0     0     0     0     0     0     0
##  8 0     0     0.883 0     0         0     0     0     0     0     0     0
##  9 0     0     0     0.701 0         0     0     0     0     0     0     0
## 10 0     0     0     0     0.767     0     0     0     0     0     0     0
## # ... with 41 more rows, and 33 more variables: S25 <dbl>, S26 <dbl>,
## #   S27 <dbl>, S28 <dbl>, S29 <dbl>, S3 <dbl>, S30 <dbl>, S31 <dbl>,
## #   S32 <dbl>, S33 <dbl>, S34 <dbl>, S35 <dbl>, S36 <dbl>, S37 <dbl>,
## #   S38 <dbl>, S39 <dbl>, S4 <dbl>, S40 <dbl>, S41 <dbl>, S42 <dbl>,
## #   S43 <dbl>, S44 <dbl>, S45 <dbl>, S46 <dbl>, S47 <dbl>, S48 <dbl>,
## #   S49 <dbl>, S5 <dbl>, S50 <dbl>, S6 <dbl>, S7 <dbl>, S8 <dbl>, S9 <dbl>
…
Next, we might want to evaluate how well this solution compares to selecting projects at random. To achieve this, we need to generate solutions that contain randomly selected projects that (i) always include the baseline scenario project, and (ii) meet the budget. Fortunately, the ppp_random_solution function does this for us. So, let’s generate 500 random solutions with a budget of $500.

# prioritize funding using stingy heuristic algorithm
s3 <- ppp_random_solution(x = sim_project_data, tree = sim_tree,
                          budget = 500, project_column_name = "name",
                          cost_column_name = "cost",
                          success_column_name = "success",
                          locked_in_column_name = "locked_in",
                          number_solutions = 500)

# print solution
print(s3)

## # A tibble: 500 x 57
##    solution objective budget  cost optimal method S1_project S2_project
##       <int>     <dbl>  <dbl> <dbl> <lgl>   <chr>  <lgl>      <lgl>     
##  1        1      4.06    500  409. NA      random TRUE       FALSE     
##  2        2      3.97    500  413. NA      random TRUE       FALSE     
##  3        3      4.08    500  500. NA      random TRUE       FALSE     
##  4        4      4.01    500  491. NA      random TRUE       FALSE     
##  5        5      3.98    500  499. NA      random TRUE       FALSE     
##  6        6      4.35    500  496. NA      random TRUE       FALSE     
##  7        7      4.03    500  424. NA      random TRUE       TRUE      
##  8        8      4.05    500  403. NA      random TRUE       FALSE     
##  9        9      3.96    500  399. NA      random TRUE       FALSE     
## 10       10      3.98    500  408. NA      random TRUE       FALSE     
##    S3_project S4_project S5_project S6_project S7_project S8_project
##    <lgl>      <lgl>      <lgl>      <lgl>      <lgl>      <lgl>     
##  1 FALSE      FALSE      FALSE      FALSE      FALSE      FALSE     
##  2 FALSE      FALSE      TRUE       FALSE      FALSE      FALSE     
##  3 FALSE      FALSE      FALSE      FALSE      TRUE       FALSE     
##  4 FALSE      FALSE      FALSE      FALSE      FALSE      FALSE     
##  5 FALSE      TRUE       FALSE      FALSE      FALSE      FALSE     
##  6 FALSE      FALSE      FALSE      FALSE      TRUE       FALSE     
##  7 FALSE      FALSE      FALSE      FALSE      FALSE      FALSE     
##  8 FALSE      FALSE      FALSE      FALSE      FALSE      FALSE     
##  9 FALSE      FALSE      FALSE      FALSE      FALSE      FALSE     
## 10 TRUE       FALSE      FALSE      FALSE      FALSE      FALSE     
## # ... with 490 more rows, and 43 more variables: S9_project <lgl>,
## #   S10_project <lgl>, S11_project <lgl>, S12_project <lgl>,
## #   S13_project <lgl>, S14_project <lgl>, S15_project <lgl>,
## #   S16_project <lgl>, S17_project <lgl>, S18_project <lgl>,
## #   S19_project <lgl>, S20_project <lgl>, S21_project <lgl>,
## #   S22_project <lgl>, S23_project <lgl>, S24_project <lgl>,
## #   S25_project <lgl>, S26_project <lgl>, S27_project <lgl>,
## #   S28_project <lgl>, S29_project <lgl>, S30_project <lgl>,
## #   S31_project <lgl>, S32_project <lgl>, S33_project <lgl>,
…
