Random solutions for the 'Project Prioritization Protocol' problem — ppp_random_solution • optimalppp
…
    For other methods for generating solutions for the 'Project
  Prioritization Protocol' problem, see ppp_heuristic_solution
  ppp_exact_solution, and ppp_manual_solution.
  To visualize the effectiveness of a particular solution, see
  ppp_plot.

    Examples

# load built-in data
data(sim_project_data, sim_tree)

# print simulated project data set
print(sim_project_data)
#> # A tibble: 51 x 55
#>    name   cost success locked_in locked_out    S1   S10   S11   S12   S13   S14
#>    <chr> <dbl>   <dbl> <lgl>     <lgl>      <dbl> <dbl> <dbl> <dbl> <dbl> <dbl>
#>  1 S1_p~  94.4   0.807 FALSE     FALSE      0.743 0     0     0     0     0    
#>  2 S2_p~ 101.    0.788 FALSE     FALSE      0     0.750 0     0     0     0    
#>  3 S3_p~ 103.    0.832 FALSE     FALSE      0     0     0.561 0     0     0    
#>  4 S4_p~  99.2   0.945 FALSE     FALSE      0     0     0     0.590 0     0    
#>  5 S5_p~  99.9   0.829 FALSE     FALSE      0     0     0     0     0.789 0    
#>  6 S6_p~ 100.    0.970 FALSE     FALSE      0     0     0     0     0     0.825
#>  7 S7_p~  93.9   0.723 FALSE     FALSE      0     0     0     0     0     0    
#>  8 S8_p~  91.7   0.981 FALSE     FALSE      0     0     0     0     0     0    
#>  9 S9_p~ 100.    0.947 FALSE     FALSE      0     0     0     0     0     0    
#> 10 S10_~  93.1   0.787 FALSE     FALSE      0     0     0     0     0     0    
#> # ... with 41 more rows, and 44 more variables: S15 <dbl>, S16 <dbl>,
#> #   S17 <dbl>, S18 <dbl>, S19 <dbl>, S2 <dbl>, S20 <dbl>, S21 <dbl>, S22 <dbl>,
#> #   S23 <dbl>, S24 <dbl>, S25 <dbl>, S26 <dbl>, S27 <dbl>, S28 <dbl>,
#> #   S29 <dbl>, S3 <dbl>, S30 <dbl>, S31 <dbl>, S32 <dbl>, S33 <dbl>, S34 <dbl>,
#> #   S35 <dbl>, S36 <dbl>, S37 <dbl>, S38 <dbl>, S39 <dbl>, S4 <dbl>, S40 <dbl>,
#> #   S41 <dbl>, S42 <dbl>, S43 <dbl>, S44 <dbl>, S45 <dbl>, S46 <dbl>,
#> #   S47 <dbl>, S48 <dbl>, S49 <dbl>, S5 <dbl>, S50 <dbl>, S6 <dbl>, S7 <dbl>,
#> #   S8 <dbl>, S9 <dbl>
…
